{
  "policyUrl": {
    "default": "https://www.ih666.cn/policy/netdebug/index.html?n=%E7%BD%91%E7%BB%9C%E8%B0%83%E8%AF%95%E5%8A%A9%E6%89%8B",
    "tencent": "https://www.wandersnail.cn/policy/btdebug/index.html?dn=%E6%9B%BE%E7%B9%81%E7%9B%9B&n=%E7%BD%91%E7%BB%9C%E8%B0%83%E8%AF%95%E5%8A%A9%E6%89%8B",
    "aliapp": "https://www.wandersnail.cn/policy/btdebug/index.html?dn=%E6%9B%BE%E7%B9%81%E7%9B%9B&n=%E7%BD%91%E7%BB%9C%E8%B0%83%E8%AF%95%E5%8A%A9%E6%89%8B",
    "baidu": "https://www.wandersnail.cn/policy/btdebug/index.html?dn=%E6%9B%BE%E7%B9%81%E7%9B%9B&n=%E7%BD%91%E7%BB%9C%E8%B0%83%E8%AF%95%E5%8A%A9%E6%89%8B",
    "vivo": "https://www.pixeldance.top/policy/btdebug/index.html?n=%E7%BD%91%E7%BB%9C%E8%B0%83%E8%AF%95%E5%8A%A9%E6%89%8B",
    "xiaomi": "https://www.pixeldance.top/policy/btdebug/index.html?n=%E7%BD%91%E7%BB%9C%E8%B0%83%E8%AF%95%E5%8A%A9%E6%89%8B",
    "qihu360": "https://www.pixeldance.top/policy/btdebug/index.html?n=%E7%BD%91%E7%BB%9C%E8%B0%83%E8%AF%95%E5%8A%A9%E6%89%8B"
  },
  "agreementUrl": {
    "default": "https://www.ih666.cn/policy/netdebug/user-agreement.html?n=%E7%BD%91%E7%BB%9C%E8%B0%83%E8%AF%95%E5%8A%A9%E6%89%8B",
    "tencent": "https://www.wandersnail.cn/policy/user-agreement.html?n=%E7%BD%91%E7%BB%9C%E8%B0%83%E8%AF%95%E5%8A%A9%E6%89%8B",
    "aliapp": "https://www.wandersnail.cn/policy/user-agreement.html?n=%E7%BD%91%E7%BB%9C%E8%B0%83%E8%AF%95%E5%8A%A9%E6%89%8B",
    "xiaomi": "https://www.pixeldance.top/policy/user-agreement.html?n=%E7%BD%91%E7%BB%9C%E8%B0%83%E8%AF%95%E5%8A%A9%E6%89%8B",
    "vivo": "https://www.pixeldance.top/policy/user-agreement.html?n=%E7%BD%91%E7%BB%9C%E8%B0%83%E8%AF%95%E5%8A%A9%E6%89%8B",
    "baidu": "https://www.wandersnail.cn/policy/user-agreement.html?n=%E7%BD%91%E7%BB%9C%E8%B0%83%E8%AF%95%E5%8A%A9%E6%89%8B",
    "qihu360": "https://www.pixeldance.top/policy/user-agreement.html?n=%E7%BD%91%E7%BB%9C%E8%B0%83%E8%AF%95%E5%8A%A9%E6%89%8B"
  },
  "notRecommendApps": [
    "cn.zengfs.netdebugger"
  ],
  "recommendUniversalDebugging": false,
  "availableAdPlatform": {
    "default": "bytedance,kuaishou,tencent,huawei",
    "huawei": "bytedance,kuaishou,tencent,huawei"
  }
}