{
  "minVersion": 8,
  "policyUrl": {
    "huawei": "https://www.pixeldance.top/app-policy.html",
    "vivo": "https://www.pixeldance.top/app-policy.html",
    "xiaomi": "https://www.pixeldance.top/app-policy.html"
  },
  "adCtrl": {
    "common": {
      "directDownload": false,
      "availableAds": "1,2,3",
      "adPlatformRatio": "3:2",
      "showInterval": {
        "splash": 120000,
        "rewardVideo": 900000,
        "native": 120000,
        "instl": 1800000,
        "banner": 3600000
      },
      "adAccounts": [
        {
          "index": 1,
          "weight": 1,
          "accountName": "pixelBytedance",
          "adPlatform": "bytedance",
          "appid": "5096471",
          "appName": "SPP蓝牙串口-调试帮手_android",
          "posids": {
            "splash": "887362120",
            "rewardVideo": "945380256",
            "native": "945380246",
            "instl": "945380250",
            "banner": ""
          }
        },
        {
          "index": 2,
          "weight": 3,
          "accountName": "pixelTencent",
          "adPlatform": "tencent",
          "appid": "1110697483",
          "posids": {
            "splash": "2051524396189610",
            "rewardVideo": "9021826356687598",
            "native": "9081722366188529",
            "instl": "7031426376482555",
            "banner": ""
          }
        },
        {
          "index": 3,
          "weight": 2,
          "accountName": "xiuyueTencent",
          "adPlatform": "tencent",
          "appid": "1111832639",
          "posids": {
            "splash": "1061598544186718",
            "rewardVideo": "",
            "rewardVideo2": "1031096574592100",
            "native": "8031096514580857",
            "instl": "5061598524090536",
            "banner": ""
          }
        }
      ]
    },
    "huawei": {
      "canShow": true,
      "minVer": 0,
      "maxVer": 9
    },
    "xiaomi": {
      "canShow": true,
      "minVer": 0,
      "maxVer": 500
    },
    "vivo": {
      "canShow": true,
      "minVer": 0,
      "maxVer": 800
    }
  },
  "notice": {
    "title": "",
    "msg": "",
    "imgUrl": "",
    "detailUrl": "",
    "repeatable": true,
    "type": "ad"
  },
  "textBanners": [
    {
      "title": "",
      "imgUrl": "",
      "detailUrl": ""
    }
  ],
  "apps": [
    {
      "name": "BLE调试宝",
      "description_cn": "BLE通信调试神器",
      "description_en": "Powerful BLE debugging tool",
      "packageName": "cn.zfs.bledebugger",
      "markets": "huawei,xiaomi,vivo,oppo,tencent,pp,wandoujia",
      "detailUrl": "http://app.mi.com/details?id=cn.zfs.bledebugger&ref=search"
    },
    {
      "name": "网络通信调试助手",
      "description_cn": "TCP、UDP调试神器，文件传输",
      "description_en": "TCP、UDP调试神器，文件传输",
      "packageName": "cn.zengfs.netdebugger",
      "markets": "huawei,vivo",
      "detailUrl": "https://appgallery.huawei.com/#/app/C104374565"
    }
  ],
  "upgradeInfo": {
    "vivo": {"apkMd5":"a340a58973441d0e18189a8e73ea2cdd","apkUrl":"https://outexp-beta.cdn.qq.com/outbeta/2021/07/19/toppixeldancespptool_1.1.1_334e4eee-3644-5f12-807d-4943034611fc.apk","channel":"custom","fileSize":11908073,"newFeature":"1、修复编码格式切换异常造成无法发送数据。2、复制日志可去除时间","packageName":"top.pixeldance.spptool","publishTime":1626675488000,"versionCode":13,"versionName":"1.1.1"},
    "huawei": {"apkMd5":"a340a58973441d0e18189a8e73ea2cdd","apkUrl":"https://outexp-beta.cdn.qq.com/outbeta/2021/07/19/toppixeldancespptool_1.1.1_334e4eee-3644-5f12-807d-4943034611fc.apk","channel":"custom","fileSize":11908073,"newFeature":"1、修复编码格式切换异常造成无法发送数据。2、复制日志可去除时间","packageName":"top.pixeldance.spptool","publishTime":1626675488000,"versionCode":13,"versionName":"1.1.1"},
    "xiaomi": {"apkMd5":"a340a58973441d0e18189a8e73ea2cdd","apkUrl":"https://outexp-beta.cdn.qq.com/outbeta/2021/07/19/toppixeldancespptool_1.1.1_334e4eee-3644-5f12-807d-4943034611fc.apk","channel":"custom","fileSize":11908073,"newFeature":"1、修复编码格式切换异常造成无法发送数据。2、复制日志可去除时间","packageName":"top.pixeldance.spptool","publishTime":1626675488000,"versionCode":13,"versionName":"1.1.1"}
  }
}
