{
	"minVersion": 1,
	"adCtrl": {
		"common": {
			"availableAds": "",
            "adPlatformRatio": "2:1",
			"showInterval": {
				"splash": 120000,
				"rewardVideo": 900000,
				"native": 0,
				"instl": 3600000,
				"banner": 3600000
			},
			"adAccounts": [
				{
					"index": 1,
					"accountName": "pixelBytedance",
					"adPlatform": "bytedance",
					"appid": "5096471",
					"appName": "SPP蓝牙串口-调试帮手_android",
					"posids": {
						"splash": "887362120",
						"rewardVideo": "945380256",
						"native": "945380246",
						"instl": "945380250",
						"banner": "945380249"
					}
				},
				{
					"index": 2,
					"accountName": "pixelTencent",
					"adPlatform": "tencent",
					"appid": "1110697483",
					"posids": {
						"splash": "2051524396189610",
						"rewardVideo": "9021826356687598",
						"native": "9081722366188529",
						"instl": "7031426376482555",
						"banner": "7001924306189567"
					}
				}
			]
		},
		"full": {
			"canShow": true,
			"minVer": 0,
			"maxVer": 1000
		},
		"tencent": {
			"canShow": true,
			"minVer": 0,
			"maxVer": 1000
		},
		"huawei": {
			"canShow": true,
			"minVer": 0,
			"maxVer": 1
		},
		"xiaomi": {
			"canShow": true,
			"minVer": 0,
			"maxVer": 1000
		},
		"vivo": {
			"canShow": true,
			"minVer": 0,
			"maxVer": 1
		},
		"aliapp": {
			"canShow": true,
			"minVer": 0,
			"maxVer": 1
		}
	},
	"notice": {
		"title": "",
		"msg": "",
		"imgUrl": "",
		"detailUrl": "",
		"repeatable": true,
		"type": "ad"
	},
	"textBanners": [],
	"apps": [
        {
            "name": "蓝牙调试宝",
            "description_cn": "强大的蓝牙串口调试工具",
            "description_en": "Powerful classic bluetooth debugging tool",
            "packageName": "cn.wandersnail.spptool",
            "markets": "huawei,xiaomi,vivo,tencent,pp,wandoujia",
            "detailUrl": "http://app.mi.com/details?id=cn.wandersnail.spptool&ref=search"
        }
    ]
}
