{
	"minVersion": 4,
    "appShareUrl": "https://appgallery.huawei.com/#/app/C104374565",
    "policyUrl": {
        "huawei": "https://www.wandersnail.cn/policy/index.html?dn=%E6%9B%BE%E7%B9%81%E7%9B%9B",
        "vivo": "https://www.pixeldance.top/app-policy.html",
        "xiaomi": "https://www.wandersnail.cn/policy/index.html",
        "aliapp": "https://www.wandersnail.cn/policy/index.html",
        "oppo": "https://www.pixeldance.top/app-policy.html"
    },
	"adCtrl": {
		"common": {
            "directDownload": false,
			"availableAds": "1,2,3",
            "adPlatformRatio": "3:2",
			"showInterval": {
				"splash": 150000,
				"rewardVideo": 1200000,
				"native": 60000,
				"instl": 1800000,
				"banner": 3600000
			},
			"adAccounts": [
				{
					"index": 1,
                    "weight": 1,
					"accountName": "pixelBytedance",
					"adPlatform": "bytedance",
					"appid": "5176912",
					"appName": "网络通信调试助手_android",
					"posids": {
						"splash": "887484838",
						"rewardVideo": "",
						"native": "946191774",
						"instl": "946180230",
						"banner": ""
					}
				},
				{
					"index": 2,
                    "weight": 3,
					"accountName": "pixelTencent",
					"adPlatform": "tencent",
					"appid": "1111903824",
					"posids": {
						"splash": "9011290339193648",
						"rewardVideo": "",
						"native": "2011190434288990",
						"instl": "2091596389292791",
						"banner": ""
					}
				},
				{
					"index": 3,
                    "weight": 2,
					"accountName": "xiuyueTencent",
					"adPlatform": "tencent",
					"appid": "1111903810",
					"posids": {
						"splash": "2071097309891755",
						"rewardVideo": "",
						"native": "7041091414686899",
						"instl": "1081495339598777",
						"banner": ""
					}
				}
			]
		},
		"huawei": {
			"canShow": true,
			"minVer": 0,
			"maxVer": 5
		},
		"vivo": {
			"canShow": true,
			"minVer": 0,
			"maxVer": 400
		},
        "xiaomi": {
			"canShow": true,
			"minVer": 0,
			"maxVer": 0
		},
        "aliapp": {
			"canShow": true,
			"minVer": 0,
			"maxVer": 0
		},
        "oppo": {
			"canShow": true,
			"minVer": 0,
			"maxVer": 0
		}
	},
	"notice": {
		"title": "",
		"msg": "",
		"imgUrl": "",
		"detailUrl": "",
		"repeatable": true,
		"type": "ad"
	},	
	"textBanners": [
        {
			"title": "",
			"imgUrl": "",
			"detailUrl": ""
		}
	],
	"apps": [
    {
		"name": "BLE调试宝",
		"description_cn": "BLE通信调试神器",
		"description_en": "Powerful BLE debugging tool",
		"packageName": "cn.zfs.bledebugger",
		"markets": "huawei,xiaomi,vivo,oppo,tencent,pp,wandoujia",
		"detailUrl": "http://app.mi.com/details?id=cn.zfs.bledebugger&ref=search"
	},
    {
		"name": "蓝牙调试宝",
		"description_cn": "蓝牙串口通信调试神器",
		"description_en": "Powerful classic bluetooth debugging tool",
		"packageName": "cn.wandersnail.spptool",
		"markets": "huawei,xiaomi,vivo,oppo,tencent,pp,wandoujia",
		"detailUrl": "http://app.mi.com/details?id=cn.wandersnail.spptool&ref=search"
	}],
    "upgradeInfo": {
        "vivo": {"apkMd5":"b81cae21ae066cb769681aa5903d2378","apkUrl":"https://outexp-beta.cdn.qq.com/outbeta/2021/07/19/cnzengfsnetdebugger_1.2.2_3a390c65-c2ae-5d25-8eae-be33a39acb4c.apk","channel":"custom","fileSize":12069421,"newFeature":"1、修复编码格式切换异常造成无法发送数据。\n2、复制日志可去除时间戳","packageName":"cn.zengfs.netdebugger","publishTime":1626673964000,"versionCode":8,"versionName":"1.2.2"},
        "huawei": {"apkMd5":"b81cae21ae066cb769681aa5903d2378","apkUrl":"https://outexp-beta.cdn.qq.com/outbeta/2021/07/19/cnzengfsnetdebugger_1.2.2_3a390c65-c2ae-5d25-8eae-be33a39acb4c.apk","channel":"custom","fileSize":12069421,"newFeature":"1、修复编码格式切换异常造成无法发送数据。\n2、复制日志可去除时间戳","packageName":"cn.zengfs.netdebugger","publishTime":1626673964000,"versionCode":8,"versionName":"1.2.2"},
        "xiaomi": {"apkMd5":"b81cae21ae066cb769681aa5903d2378","apkUrl":"https://outexp-beta.cdn.qq.com/outbeta/2021/07/19/cnzengfsnetdebugger_1.2.2_3a390c65-c2ae-5d25-8eae-be33a39acb4c.apk","channel":"custom","fileSize":12069421,"newFeature":"1、修复编码格式切换异常造成无法发送数据。\n2、复制日志可去除时间戳","packageName":"cn.zengfs.netdebugger","publishTime":1626673964000,"versionCode":8,"versionName":"1.2.2"}
    }
}
